******Start******
1369999548.431674 Touch_Screen Press Horizontal 697
1369999548.431796 Touch_Screen Press Vertical  1204
1369999548.486733 Touch_Screen Press Horizontal 695
1369999548.519451 Touch_Screen Press Vertical  1203
1369999548.563339 Touch_Screen Release
1369999550.070587 Touch_Screen Press Horizontal 654
1369999550.070618 Touch_Screen Press Vertical  589
1369999550.081514 Touch_Screen Press Horizontal 653
1369999550.092501 Touch_Screen Press Horizontal 651
1369999550.103519 Touch_Screen Press Horizontal 649
1369999550.114506 Touch_Screen Press Horizontal 646
1369999550.125555 Touch_Screen Press Horizontal 643
1369999550.136512 Touch_Screen Press Horizontal 639
1369999550.136542 Touch_Screen Press Vertical  588
1369999550.147316 Touch_Screen Press Horizontal 631
1369999550.158639 Touch_Screen Press Horizontal 613
1369999550.158669 Touch_Screen Press Vertical  587
1369999550.169596 Touch_Screen Press Horizontal 587
1369999550.169626 Touch_Screen Press Vertical  585
1369999550.180980 Touch_Screen Press Horizontal 555
1369999550.181010 Touch_Screen Press Vertical  580
1369999550.191967 Touch_Screen Press Horizontal 519
1369999550.191998 Touch_Screen Press Vertical  576
1369999550.203199 Touch_Screen Press Horizontal 481
1369999550.203229 Touch_Screen Press Vertical  570
1369999550.214033 Touch_Screen Press Horizontal 445
1369999550.214064 Touch_Screen Press Vertical  568
1369999550.225143 Touch_Screen Press Horizontal 410
1369999550.225234 Touch_Screen Press Vertical  565
1369999550.236008 Touch_Screen Press Horizontal 380
1369999550.236038 Touch_Screen Press Vertical  562
1369999550.247239 Touch_Screen Press Horizontal 349
1369999550.247300 Touch_Screen Press Vertical  559
1369999550.258105 Touch_Screen Press Horizontal 320
1369999550.258135 Touch_Screen Press Vertical  557
1369999550.269275 Touch_Screen Press Horizontal 292
1369999550.280476 Touch_Screen Press Horizontal 261
1369999550.291006 Touch_Screen Press Horizontal 233
1369999550.291036 Touch_Screen Press Vertical  559
1369999550.302146 Touch_Screen Press Horizontal 209
1369999550.302176 Touch_Screen Press Vertical  558
1369999550.313133 Touch_Screen Press Horizontal 187
1369999550.313163 Touch_Screen Press Vertical  560
1369999550.323876 Touch_Screen Press Horizontal 171
1369999550.335047 Touch_Screen Press Horizontal 157
1369999550.345942 Touch_Screen Press Horizontal 144
1369999550.356716 Touch_Screen Press Horizontal 131
1369999550.356747 Touch_Screen Press Vertical  561
1369999550.367764 Touch_Screen Press Horizontal 122
1369999550.367795 Touch_Screen Press Vertical  562
1369999550.378660 Touch_Screen Press Horizontal 114
1369999550.389831 Touch_Screen Press Horizontal 106
1369999550.389861 Touch_Screen Press Vertical  563
1369999550.400879 Touch_Screen Press Horizontal 98
1369999550.400909 Touch_Screen Press Vertical  565
1369999550.411988 Touch_Screen Press Horizontal 92
1369999550.412019 Touch_Screen Press Vertical  567
1369999550.422884 Touch_Screen Press Horizontal 88
1369999550.422945 Touch_Screen Press Vertical  568
1369999550.433933 Touch_Screen Press Horizontal 86
1369999550.433963 Touch_Screen Press Vertical  569
1369999550.444859 Touch_Screen Press Horizontal 84
1369999550.444889 Touch_Screen Press Vertical  570
1369999550.455907 Touch_Screen Press Horizontal 82
1369999550.455938 Touch_Screen Press Vertical  572
1369999550.466895 Touch_Screen Press Horizontal 81
1369999550.466925 Touch_Screen Press Vertical  575
1369999550.478034 Touch_Screen Press Horizontal 82
1369999550.478065 Touch_Screen Press Vertical  580
1369999550.488839 Touch_Screen Press Horizontal 89
1369999550.488869 Touch_Screen Press Vertical  591
1369999550.500162 Touch_Screen Press Horizontal 101
1369999550.500192 Touch_Screen Press Vertical  602
1369999550.511058 Touch_Screen Press Horizontal 122
1369999550.511088 Touch_Screen Press Vertical  611
1369999550.522045 Touch_Screen Press Horizontal 149
1369999550.522075 Touch_Screen Press Vertical  623
1369999550.532666 Touch_Screen Press Horizontal 180
1369999550.532696 Touch_Screen Press Vertical  637
1369999550.544081 Touch_Screen Press Horizontal 215
1369999550.544416 Touch_Screen Press Vertical  648
1369999550.554976 Touch_Screen Press Horizontal 248
1369999550.555007 Touch_Screen Press Vertical  661
1369999550.565811 Touch_Screen Press Horizontal 277
1369999550.565872 Touch_Screen Press Vertical  674
1369999550.576737 Touch_Screen Press Horizontal 305
1369999550.576798 Touch_Screen Press Vertical  685
1369999550.587725 Touch_Screen Press Horizontal 329
1369999550.587755 Touch_Screen Press Vertical  697
1369999550.598712 Touch_Screen Press Horizontal 351
1369999550.598743 Touch_Screen Press Vertical  709
1369999550.609852 Touch_Screen Press Horizontal 369
1369999550.609913 Touch_Screen Press Vertical  717
1369999550.620595 Touch_Screen Press Horizontal 384
1369999550.620626 Touch_Screen Press Vertical  725
1369999550.631613 Touch_Screen Press Horizontal 393
1369999550.631644 Touch_Screen Press Vertical  730
1369999550.642631 Touch_Screen Press Horizontal 399
1369999550.642661 Touch_Screen Press Vertical  735
1369999550.653801 Touch_Screen Press Horizontal 401
1369999550.653832 Touch_Screen Press Vertical  740
1369999550.664789 Touch_Screen Press Horizontal 402
1369999550.664850 Touch_Screen Press Vertical  745
1369999550.675684 Touch_Screen Press Horizontal 401
1369999550.675715 Touch_Screen Press Vertical  751
1369999550.687007 Touch_Screen Press Horizontal 398
1369999550.687038 Touch_Screen Press Vertical  758
1369999550.697964 Touch_Screen Press Horizontal 390
1369999550.697995 Touch_Screen Press Vertical  769
1369999550.708768 Touch_Screen Press Horizontal 374
1369999550.708799 Touch_Screen Press Vertical  785
1369999550.720153 Touch_Screen Press Horizontal 348
1369999550.720183 Touch_Screen Press Vertical  806
1369999550.730865 Touch_Screen Press Horizontal 319
1369999550.730896 Touch_Screen Press Vertical  832
1369999550.742066 Touch_Screen Press Horizontal 289
1369999550.742097 Touch_Screen Press Vertical  856
1369999550.752962 Touch_Screen Press Horizontal 260
1369999550.753023 Touch_Screen Press Vertical  881
1369999550.764010 Touch_Screen Press Horizontal 234
1369999550.764041 Touch_Screen Press Vertical  902
1369999550.774906 Touch_Screen Press Horizontal 215
1369999550.774937 Touch_Screen Press Vertical  917
1369999550.786107 Touch_Screen Press Horizontal 194
1369999550.786138 Touch_Screen Press Vertical  933
1369999550.797033 Touch_Screen Press Horizontal 176
1369999550.797064 Touch_Screen Press Vertical  948
1369999550.807960 Touch_Screen Press Horizontal 162
1369999550.807990 Touch_Screen Press Vertical  958
1369999550.819008 Touch_Screen Press Horizontal 148
1369999550.819039 Touch_Screen Press Vertical  969
1369999550.830148 Touch_Screen Press Horizontal 137
1369999550.830179 Touch_Screen Press Vertical  978
1369999550.840922 Touch_Screen Press Horizontal 126
1369999550.840952 Touch_Screen Press Vertical  988
1369999550.852031 Touch_Screen Press Horizontal 118
1369999550.852062 Touch_Screen Press Vertical  995
1369999550.862927 Touch_Screen Press Horizontal 112
1369999550.862957 Touch_Screen Press Vertical  1002
1369999550.873884 Touch_Screen Press Horizontal 109
1369999550.873914 Touch_Screen Press Vertical  1007
1369999550.884841 Touch_Screen Press Horizontal 106
1369999550.884871 Touch_Screen Press Vertical  1011
1369999550.895889 Touch_Screen Press Horizontal 104
1369999550.895950 Touch_Screen Press Vertical  1014
1369999550.906907 Touch_Screen Press Horizontal 103
1369999550.906937 Touch_Screen Press Vertical  1016
1369999550.917894 Touch_Screen Press Horizontal 104
1369999550.917925 Touch_Screen Press Vertical  1020
1369999550.928912 Touch_Screen Press Horizontal 110
1369999550.928942 Touch_Screen Press Vertical  1026
1369999550.940021 Touch_Screen Press Horizontal 124
1369999550.940052 Touch_Screen Press Vertical  1033
1369999550.950826 Touch_Screen Press Horizontal 143
1369999550.950856 Touch_Screen Press Vertical  1036
1369999550.961904 Touch_Screen Press Horizontal 169
1369999550.973014 Touch_Screen Press Horizontal 205
1369999550.973044 Touch_Screen Press Vertical  1030
1369999550.983757 Touch_Screen Press Horizontal 244
1369999550.984123 Touch_Screen Press Vertical  1025
1369999550.994805 Touch_Screen Press Horizontal 287
1369999550.994836 Touch_Screen Press Vertical  1017
1369999551.005671 Touch_Screen Press Horizontal 329
1369999551.005732 Touch_Screen Press Vertical  1008
1369999551.016597 Touch_Screen Press Horizontal 373
1369999551.016627 Touch_Screen Press Vertical  1000
1369999551.027706 Touch_Screen Press Horizontal 409
1369999551.027767 Touch_Screen Press Vertical  996
1369999551.038572 Touch_Screen Press Horizontal 441
1369999551.038602 Touch_Screen Press Vertical  993
1369999551.049345 Touch_Screen Press Horizontal 475
1369999551.049376 Touch_Screen Press Vertical  991
1369999551.060516 Touch_Screen Press Horizontal 501
1369999551.060546 Touch_Screen Press Vertical  989
1369999551.071686 Touch_Screen Press Horizontal 527
1369999551.071717 Touch_Screen Press Vertical  987
1369999551.082368 Touch_Screen Press Horizontal 551
1369999551.082429 Touch_Screen Press Vertical  983
1369999551.093478 Touch_Screen Press Horizontal 573
1369999551.093508 Touch_Screen Press Vertical  981
1369999551.104557 Touch_Screen Press Horizontal 590
1369999551.104587 Touch_Screen Press Vertical  982
1369999551.115575 Touch_Screen Press Horizontal 602
1369999551.115605 Touch_Screen Press Vertical  983
1369999551.126348 Touch_Screen Press Horizontal 614
1369999551.126379 Touch_Screen Press Vertical  987
1369999551.137336 Touch_Screen Press Horizontal 623
1369999551.137366 Touch_Screen Press Vertical  992
1369999551.148262 Touch_Screen Press Horizontal 627
1369999551.148292 Touch_Screen Press Vertical  996
1369999551.159707 Touch_Screen Release
1369999553.216780 Touch_Screen Press Horizontal 354
1369999553.216872 Touch_Screen Press Vertical  1242
1369999553.271228 Touch_Screen Press Vertical  1243
1369999553.282307 Touch_Screen Press Vertical  1244
1369999553.293295 Touch_Screen Press Vertical  1245
1369999553.304923 Touch_Screen Press Horizontal 355
1369999553.315788 Touch_Screen Release
1369999555.065094 Touch_Screen Press Horizontal 382
1369999555.065124 Touch_Screen Press Vertical  1026
1369999555.086672 Touch_Screen Press Horizontal 377
1369999555.097751 Touch_Screen Press Horizontal 374
1369999555.097781 Touch_Screen Press Vertical  1025
1369999555.108677 Touch_Screen Press Horizontal 372
1369999555.119664 Touch_Screen Press Horizontal 370
1369999555.119695 Touch_Screen Press Vertical  1026
1369999555.130804 Touch_Screen Press Horizontal 368
1369999555.130835 Touch_Screen Press Vertical  1027
1369999555.141822 Touch_Screen Press Horizontal 367
1369999555.141853 Touch_Screen Press Vertical  1028
1369999555.152748 Touch_Screen Press Horizontal 366
1369999555.163675 Touch_Screen Press Vertical  1029
1369999555.174692 Touch_Screen Press Horizontal 367
1369999555.174723 Touch_Screen Press Vertical  1030
1369999555.186351 Touch_Screen Press Horizontal 371
1369999555.186382 Touch_Screen Press Vertical  1032
1369999555.196606 Touch_Screen Release
1369999555.394927 Touch_Screen Press Horizontal 636
1369999555.394989 Touch_Screen Press Vertical  877
1369999555.405823 Touch_Screen Press Horizontal 637
1369999555.405854 Touch_Screen Press Vertical  876
1369999555.427645 Touch_Screen Press Horizontal 638
1369999555.449559 Touch_Screen Press Horizontal 637
1369999555.449589 Touch_Screen Press Vertical  877
1369999555.461370 Touch_Screen Press Horizontal 636
1369999555.461401 Touch_Screen Press Vertical  878
1369999555.471717 Touch_Screen Release
1369999555.636679 Touch_Screen Press Horizontal 406
1369999555.636740 Touch_Screen Press Vertical  1234
1369999555.691708 Touch_Screen Press Horizontal 403
1369999555.691738 Touch_Screen Press Vertical  1232
1369999555.702664 Touch_Screen Press Horizontal 400
1369999555.702695 Touch_Screen Press Vertical  1231
1369999555.713957 Touch_Screen Press Horizontal 393
1369999555.714018 Touch_Screen Press Vertical  1227
1369999555.724883 Touch_Screen Release
1369999556.022121 Touch_Screen Press Horizontal 115
1369999556.022152 Touch_Screen Press Vertical  911
1369999556.032986 Touch_Screen Press Vertical  912
1369999556.043974 Touch_Screen Press Vertical  913
1369999556.055083 Touch_Screen Press Horizontal 114
1369999556.055114 Touch_Screen Press Vertical  914
1369999556.066040 Touch_Screen Press Horizontal 112
1369999556.066070 Touch_Screen Press Vertical  917
1369999556.076814 Touch_Screen Press Horizontal 108
1369999556.076844 Touch_Screen Press Vertical  922
1369999556.087954 Touch_Screen Press Horizontal 102
1369999556.087984 Touch_Screen Press Vertical  932
1369999556.099368 Touch_Screen Press Horizontal 96
1369999556.099429 Touch_Screen Press Vertical  940
1369999556.110295 Touch_Screen Press Horizontal 89
1369999556.110325 Touch_Screen Press Vertical  949
1369999556.121160 Touch_Screen Press Horizontal 83
1369999556.121190 Touch_Screen Press Vertical  958
1369999556.132117 Touch_Screen Press Horizontal 80
1369999556.132147 Touch_Screen Press Vertical  965
1369999556.143379 Touch_Screen Press Horizontal 77
1369999556.143409 Touch_Screen Press Vertical  973
1369999556.154122 Touch_Screen Press Horizontal 74
1369999556.154152 Touch_Screen Press Vertical  982
1369999556.165262 Touch_Screen Press Horizontal 73
1369999556.165292 Touch_Screen Press Vertical  990
1369999556.176188 Touch_Screen Press Vertical  996
1369999556.187114 Touch_Screen Press Horizontal 74
1369999556.187175 Touch_Screen Press Vertical  1004
1369999556.198132 Touch_Screen Press Horizontal 78
1369999556.198163 Touch_Screen Press Vertical  1012
1369999556.209058 Touch_Screen Press Horizontal 85
1369999556.209089 Touch_Screen Press Vertical  1017
1369999556.219985 Touch_Screen Press Horizontal 94
1369999556.220015 Touch_Screen Press Vertical  1021
1369999556.231277 Touch_Screen Press Horizontal 103
1369999556.231308 Touch_Screen Press Vertical  1023
1369999556.242295 Touch_Screen Press Horizontal 115
1369999556.253374 Touch_Screen Press Horizontal 135
1369999556.253405 Touch_Screen Press Vertical  1018
1369999556.264575 Touch_Screen Press Horizontal 156
1369999556.264606 Touch_Screen Press Vertical  1009
1369999556.275105 Touch_Screen Press Horizontal 180
1369999556.275135 Touch_Screen Press Vertical  995
1369999556.286428 Touch_Screen Press Horizontal 206
1369999556.286458 Touch_Screen Press Vertical  977
1369999556.297110 Touch_Screen Press Horizontal 234
1369999556.297171 Touch_Screen Press Vertical  958
1369999556.308402 Touch_Screen Press Horizontal 262
1369999556.308433 Touch_Screen Press Vertical  937
1369999556.318993 Touch_Screen Press Horizontal 289
1369999556.319023 Touch_Screen Press Vertical  918
1369999556.330255 Touch_Screen Press Horizontal 314
1369999556.330285 Touch_Screen Press Vertical  902
1369999556.340937 Touch_Screen Press Horizontal 333
1369999556.340967 Touch_Screen Press Vertical  890
1369999556.351924 Touch_Screen Press Horizontal 345
1369999556.351955 Touch_Screen Press Vertical  885
1369999556.363095 Touch_Screen Press Horizontal 354
1369999556.363156 Touch_Screen Press Vertical  881
1369999556.374265 Touch_Screen Press Horizontal 359
1369999556.374296 Touch_Screen Press Vertical  879
1369999556.385375 Touch_Screen Press Horizontal 362
1369999556.396270 Touch_Screen Press Horizontal 364
1369999556.407319 Touch_Screen Press Horizontal 366
1369999556.407349 Touch_Screen Press Vertical  881
1369999556.418367 Touch_Screen Press Horizontal 368
1369999556.418398 Touch_Screen Press Vertical  886
1369999556.429446 Touch_Screen Press Vertical  893
1369999556.440311 Touch_Screen Press Horizontal 365
1369999556.440372 Touch_Screen Press Vertical  909
1369999556.451299 Touch_Screen Press Horizontal 356
1369999556.451329 Touch_Screen Press Vertical  931
1369999556.462469 Touch_Screen Press Horizontal 342
1369999556.462500 Touch_Screen Press Vertical  958
1369999556.473060 Touch_Screen Press Horizontal 328
1369999556.473121 Touch_Screen Press Vertical  990
1369999556.484108 Touch_Screen Press Horizontal 314
1369999556.484169 Touch_Screen Press Vertical  1022
1369999556.495156 Touch_Screen Press Horizontal 307
1369999556.495217 Touch_Screen Press Vertical  1044
1369999556.506083 Touch_Screen Press Horizontal 299
1369999556.506113 Touch_Screen Press Vertical  1069
1369999556.516948 Touch_Screen Press Horizontal 294
1369999556.516978 Touch_Screen Press Vertical  1087
1369999556.528057 Touch_Screen Press Horizontal 291
1369999556.528088 Touch_Screen Press Vertical  1101
1369999556.539045 Touch_Screen Press Horizontal 289
1369999556.539075 Touch_Screen Press Vertical  1115
1369999556.549910 Touch_Screen Press Vertical  1122
1369999556.561477 Touch_Screen Press Vertical  1130
1369999556.572068 Touch_Screen Press Vertical  1136
1369999556.583055 Touch_Screen Press Horizontal 290
1369999556.583116 Touch_Screen Press Vertical  1140
1369999556.594042 Touch_Screen Press Horizontal 291
1369999556.594103 Touch_Screen Press Vertical  1143
1369999556.605060 Touch_Screen Press Horizontal 292
1369999556.605091 Touch_Screen Press Vertical  1144
1369999556.616139 Touch_Screen Press Horizontal 295
1369999556.627188 Touch_Screen Press Horizontal 304
1369999556.627218 Touch_Screen Press Vertical  1134
1369999556.638450 Touch_Screen Press Horizontal 315
1369999556.638480 Touch_Screen Press Vertical  1124
1369999556.649101 Touch_Screen Press Horizontal 333
1369999556.649132 Touch_Screen Press Vertical  1105
1369999556.660180 Touch_Screen Press Horizontal 349
1369999556.660211 Touch_Screen Press Vertical  1085
1369999556.671320 Touch_Screen Press Horizontal 364
1369999556.671351 Touch_Screen Press Vertical  1068
1369999556.682216 Touch_Screen Press Horizontal 380
1369999556.682246 Touch_Screen Press Vertical  1050
1369999556.693173 Touch_Screen Press Horizontal 394
1369999556.693203 Touch_Screen Press Vertical  1034
1369999556.704099 Touch_Screen Press Horizontal 404
1369999556.704129 Touch_Screen Press Vertical  1022
1369999556.715056 Touch_Screen Press Horizontal 414
1369999556.715086 Touch_Screen Press Vertical  1011
1369999556.726196 Touch_Screen Press Horizontal 426
1369999556.726226 Touch_Screen Press Vertical  1000
1369999556.737213 Touch_Screen Press Horizontal 434
1369999556.737244 Touch_Screen Press Vertical  993
1369999556.748414 Touch_Screen Press Horizontal 443
1369999556.748475 Touch_Screen Press Vertical  986
1369999556.758852 Touch_Screen Release
1369999557.298208 Touch_Screen Press Horizontal 401
1369999557.298239 Touch_Screen Press Vertical  1220
1369999557.330743 Touch_Screen Press Horizontal 400
1369999557.341761 Touch_Screen Press Horizontal 399
1369999557.352779 Touch_Screen Press Horizontal 398
1369999557.352809 Touch_Screen Press Vertical  1221
1369999557.364468 Touch_Screen Press Horizontal 396
1369999557.375211 Touch_Screen Release
1369999558.365658 Touch_Screen Press Horizontal 441
1369999558.365750 Touch_Screen Press Vertical  875
1369999558.387481 Touch_Screen Press Horizontal 439
1369999558.387511 Touch_Screen Press Vertical  873
1369999558.398926 Touch_Screen Press Horizontal 436
1369999558.398956 Touch_Screen Press Vertical  869
1369999558.409150 Touch_Screen Release
1369999558.640433 Touch_Screen Press Horizontal 184
1369999558.640464 Touch_Screen Press Vertical  866
1369999558.662194 Touch_Screen Press Horizontal 185
1369999558.662225 Touch_Screen Press Vertical  868
1369999558.673182 Touch_Screen Press Horizontal 189
1369999558.673212 Touch_Screen Press Vertical  873
1369999558.684291 Touch_Screen Release
1369999558.871167 Touch_Screen Press Horizontal 480
1369999558.871198 Touch_Screen Press Vertical  973
1369999558.893142 Touch_Screen Press Horizontal 486
1369999558.893173 Touch_Screen Press Vertical  975
1369999558.904160 Touch_Screen Press Horizontal 489
1369999558.904190 Touch_Screen Press Vertical  977
1369999558.915147 Touch_Screen Press Horizontal 493
1369999558.915239 Touch_Screen Press Vertical  979
1369999558.926867 Touch_Screen Press Horizontal 496
1369999558.926898 Touch_Screen Press Vertical  984
1369999558.937397 Touch_Screen Press Horizontal 500
1369999558.937458 Touch_Screen Press Vertical  986
1369999558.948170 Touch_Screen Release
1369999559.816811 Touch_Screen Press Horizontal 666
1369999559.816872 Touch_Screen Press Vertical  1110
1369999559.827432 Touch_Screen Press Horizontal 672
1369999559.838541 Touch_Screen Release
1369999559.927050 Touch_Screen Press Horizontal 669
1369999559.927447 Touch_Screen Press Vertical  1117
1369999559.937976 Touch_Screen Press Vertical  1116
1369999559.948994 Touch_Screen Press Horizontal 670
1369999559.949025 Touch_Screen Press Vertical  1115
1369999559.959890 Touch_Screen Press Horizontal 671
1369999559.970847 Touch_Screen Press Horizontal 672
1369999559.981865 Touch_Screen Press Vertical  1114
1369999560.014827 Touch_Screen Press Vertical  1113
1369999560.059539 Touch_Screen Press Horizontal 671
1369999560.059570 Touch_Screen Press Vertical  1114
1369999560.070435 Touch_Screen Press Horizontal 670
1369999560.070465 Touch_Screen Press Vertical  1115
1369999560.081514 Touch_Screen Press Horizontal 669
1369999560.081544 Touch_Screen Press Vertical  1116
1369999560.092135 Touch_Screen Press Vertical  1117
1369999560.103122 Touch_Screen Press Horizontal 670
1369999560.103153 Touch_Screen Press Vertical  1118
1369999560.124914 Touch_Screen Press Horizontal 671
1369999560.136023 Touch_Screen Press Horizontal 672
1369999560.168894 Touch_Screen Press Horizontal 673
1369999560.190777 Touch_Screen Press Horizontal 674
1369999560.190807 Touch_Screen Press Vertical  1117
1369999560.201825 Touch_Screen Press Horizontal 675
1369999560.201856 Touch_Screen Press Vertical  1116
1369999560.235336 Touch_Screen Release
1369999560.928668 Touch_Screen Press Vertical  1104
1369999560.949788 Touch_Screen Press Vertical  1105
1369999560.960745 Touch_Screen Press Horizontal 676
1369999560.960775 Touch_Screen Press Vertical  1106
1369999560.971763 Touch_Screen Press Horizontal 677
1369999560.971793 Touch_Screen Press Vertical  1107
1369999560.982933 Touch_Screen Press Vertical  1109
1369999560.993920 Touch_Screen Press Horizontal 676
1369999560.993951 Touch_Screen Press Vertical  1113
1369999561.004969 Touch_Screen Press Horizontal 675
1369999561.005030 Touch_Screen Press Vertical  1118
1369999561.016627 Touch_Screen Press Horizontal 673
1369999561.016658 Touch_Screen Press Vertical  1122
1369999561.026669 Touch_Screen Release
1369999561.434909 Touch_Screen Press Horizontal 403
1369999561.434970 Touch_Screen Press Vertical  889
1369999561.467413 Touch_Screen Press Horizontal 402
1369999561.467444 Touch_Screen Press Vertical  888
1369999561.479286 Touch_Screen Press Horizontal 401
1369999561.489785 Touch_Screen Press Horizontal 397
1369999561.489815 Touch_Screen Press Vertical  884
1369999561.500375 Touch_Screen Release
1369999561.698666 Touch_Screen Press Horizontal 186
1369999561.698697 Touch_Screen Press Vertical  908
1369999561.731506 Touch_Screen Release
1369999561.951314 Touch_Screen Press Horizontal 428
1369999561.951344 Touch_Screen Press Vertical  974
1369999561.973441 Touch_Screen Press Horizontal 430
1369999561.984459 Touch_Screen Press Horizontal 433
1369999561.984490 Touch_Screen Press Vertical  975
1369999561.995446 Touch_Screen Press Horizontal 436
1369999561.995507 Touch_Screen Press Vertical  976
1369999562.006495 Touch_Screen Press Horizontal 439
1369999562.006525 Touch_Screen Press Vertical  977
1369999562.017360 Touch_Screen Press Horizontal 443
1369999562.017390 Touch_Screen Press Vertical  980
1369999562.028744 Touch_Screen Press Horizontal 447
1369999562.028775 Touch_Screen Press Vertical  981
1369999562.039152 Touch_Screen Release
1369999563.767429 Touch_Screen Press Horizontal 44
1369999563.767520 Touch_Screen Press Vertical  788
1369999563.832529 Touch_Screen Release
1369999564.316948 Touch_Screen Press Horizontal 420
1369999564.317009 Touch_Screen Press Vertical  1256
1369999564.327600 Touch_Screen Press Horizontal 421
1369999564.327630 Touch_Screen Press Vertical  1257
1369999564.338373 Touch_Screen Press Horizontal 423
1369999564.360378 Touch_Screen Press Horizontal 425
1369999564.360409 Touch_Screen Press Vertical  1258
1369999564.371335 Touch_Screen Press Horizontal 426
1369999564.382414 Touch_Screen Press Horizontal 427
1369999564.405457 Touch_Screen Release
1369999564.690945 Touch_Screen Press Horizontal 511
1369999564.691006 Touch_Screen Press Vertical  1000
1369999564.756960 Touch_Screen Press Horizontal 510
1369999564.768070 Touch_Screen Press Horizontal 506
1369999564.779698 Touch_Screen Press Horizontal 500
1369999564.779728 Touch_Screen Press Vertical  999
1369999564.789922 Touch_Screen Release
1369999565.087343 Touch_Screen Press Horizontal 40
1369999565.087404 Touch_Screen Press Vertical  994
1369999565.131048 Touch_Screen Press Horizontal 42
1369999565.131079 Touch_Screen Press Vertical  995
1369999565.164132 Touch_Screen Press Vertical  994
1369999565.174906 Touch_Screen Press Horizontal 43
1369999565.174937 Touch_Screen Press Vertical  991
1369999565.186229 Touch_Screen Release
1369999565.296896 Touch_Screen Press Horizontal 100
1369999565.296927 Touch_Screen Press Vertical  889
1369999565.307273 Touch_Screen Press Vertical  890
1369999565.329248 Touch_Screen Press Vertical  891
1369999565.340143 Touch_Screen Press Vertical  892
1369999565.351131 Touch_Screen Press Vertical  893
1369999565.362179 Touch_Screen Press Horizontal 99
1369999565.362210 Touch_Screen Press Vertical  894
1369999565.374052 Touch_Screen Press Horizontal 98
1369999565.374082 Touch_Screen Press Vertical  896
1369999565.384062 Touch_Screen Release
1369999565.527416 Touch_Screen Press Horizontal 40
1369999565.527447 Touch_Screen Press Vertical  993
1369999565.582078 Touch_Screen Press Horizontal 39
1369999565.582139 Touch_Screen Press Vertical  994
1369999565.593615 Touch_Screen Press Horizontal 38
1369999565.593646 Touch_Screen Press Vertical  995
1369999565.604267 Touch_Screen Release
1369999565.681331 Touch_Screen Press Horizontal 34
1369999565.681392 Touch_Screen Press Vertical  996
1369999565.725097 Touch_Screen Press Horizontal 35
1369999565.768924 Touch_Screen Release
1369999566.066498 Touch_Screen Press Horizontal 502
1369999566.066559 Touch_Screen Press Vertical  1069
1369999566.077241 Touch_Screen Press Horizontal 503
1369999566.077271 Touch_Screen Press Vertical  1070
1369999566.088198 Touch_Screen Press Horizontal 506
1369999566.088259 Touch_Screen Press Vertical  1071
1369999566.099124 Touch_Screen Press Horizontal 510
1369999566.099155 Touch_Screen Press Vertical  1073
1369999566.110050 Touch_Screen Press Horizontal 513
1369999566.110081 Touch_Screen Press Vertical  1075
1369999566.121068 Touch_Screen Press Horizontal 515
1369999566.121099 Touch_Screen Press Vertical  1076
1369999566.131994 Touch_Screen Press Horizontal 517
1369999566.132025 Touch_Screen Press Vertical  1077
1369999566.143012 Touch_Screen Press Horizontal 518
1369999566.143043 Touch_Screen Press Vertical  1078
1369999566.154030 Touch_Screen Press Horizontal 519
1369999566.165658 Touch_Screen Press Vertical  1077
1369999566.176249 Touch_Screen Release
1369999566.341639 Touch_Screen Press Horizontal 513
1369999566.341669 Touch_Screen Press Vertical  886
1369999566.363492 Touch_Screen Press Horizontal 514
1369999566.363522 Touch_Screen Press Vertical  885
1369999566.374418 Touch_Screen Press Horizontal 515
1369999566.374479 Touch_Screen Press Vertical  884
1369999566.385436 Touch_Screen Press Horizontal 516
1369999566.385466 Touch_Screen Press Vertical  883
1369999566.396301 Touch_Screen Press Horizontal 517
1369999566.396331 Touch_Screen Press Vertical  882
1369999566.407319 Touch_Screen Press Horizontal 519
1369999566.418215 Touch_Screen Press Horizontal 521
1369999566.429324 Touch_Screen Press Horizontal 524
1369999566.429354 Touch_Screen Press Vertical  881
1369999566.441044 Touch_Screen Press Horizontal 525
1369999566.451146 Touch_Screen Release
1369999567.574052 Touch_Screen Press Horizontal 114
1369999567.574082 Touch_Screen Press Vertical  754
1369999567.607410 Touch_Screen Press Horizontal 113
1369999567.607441 Touch_Screen Press Vertical  756
1369999567.617848 Touch_Screen Release
1369999568.024960 Touch_Screen Press Horizontal 431
1369999568.024990 Touch_Screen Press Vertical  1219
1369999568.079713 Touch_Screen Press Vertical  1216
1369999568.090975 Touch_Screen Press Horizontal 430
1369999568.091006 Touch_Screen Press Vertical  1212
1369999568.102481 Touch_Screen Press Horizontal 429
1369999568.102512 Touch_Screen Press Vertical  1202
1369999568.112980 Touch_Screen Release
1369999568.322625 Touch_Screen Press Horizontal 434
1369999568.322686 Touch_Screen Press Vertical  986
1369999568.366177 Touch_Screen Press Horizontal 432
1369999568.366208 Touch_Screen Press Vertical  985
1369999568.377622 Touch_Screen Press Horizontal 429
1369999568.388030 Touch_Screen Release
1369999568.597552 Touch_Screen Press Horizontal 45
1369999568.597583 Touch_Screen Press Vertical  986
1369999568.642081 Touch_Screen Press Horizontal 46
1369999568.662866 Touch_Screen Release
1369999568.916734 Touch_Screen Press Horizontal 523
1369999568.916765 Touch_Screen Press Vertical  882
1369999568.938221 Touch_Screen Press Horizontal 525
1369999568.938251 Touch_Screen Press Vertical  884
1369999568.949208 Touch_Screen Press Horizontal 526
1369999568.949238 Touch_Screen Press Vertical  885
1369999568.960195 Touch_Screen Press Horizontal 528
1369999568.960256 Touch_Screen Press Vertical  887
1369999568.971213 Touch_Screen Press Horizontal 530
1369999568.971244 Touch_Screen Press Vertical  889
1369999568.982200 Touch_Screen Press Horizontal 531
1369999568.982231 Touch_Screen Press Vertical  891
1369999568.993951 Touch_Screen Press Horizontal 534
1369999568.993981 Touch_Screen Press Vertical  894
1369999569.004267 Touch_Screen Release
1369999570.171213 Touch_Screen Press Horizontal 107
1369999570.171244 Touch_Screen Press Vertical  806
1369999570.226150 Touch_Screen Release
1369999570.754061 Touch_Screen Press Horizontal 417
1369999570.754091 Touch_Screen Press Vertical  1250
1369999570.786901 Touch_Screen Press Horizontal 419
1369999570.819893 Touch_Screen Press Horizontal 418
1369999570.819924 Touch_Screen Press Vertical  1248
1369999570.831521 Touch_Screen Press Horizontal 415
1369999570.831552 Touch_Screen Press Vertical  1245
1369999570.842326 Touch_Screen Release
1369999571.139564 Touch_Screen Press Horizontal 225
1369999571.139594 Touch_Screen Press Vertical  948
1369999571.184032 Touch_Screen Press Horizontal 223
1369999571.194195 Touch_Screen Release
1369999571.337580 Touch_Screen Press Horizontal 192
1369999571.337610 Touch_Screen Press Vertical  878
1369999571.359646 Touch_Screen Press Vertical  877
1369999571.370237 Touch_Screen Press Horizontal 191
1369999571.370267 Touch_Screen Press Vertical  876
1369999571.382200 Touch_Screen Press Horizontal 190
1369999571.382231 Touch_Screen Press Vertical  872
1369999571.392883 Touch_Screen Press Horizontal 189
1369999571.392913 Touch_Screen Press Vertical  871
1369999571.403351 Touch_Screen Release
1369999571.491433 Touch_Screen Press Horizontal 188
1369999571.535260 Touch_Screen Press Horizontal 187
1369999571.546186 Touch_Screen Press Horizontal 184
1369999571.546217 Touch_Screen Press Vertical  872
1369999571.557815 Touch_Screen Press Horizontal 181
1369999571.557845 Touch_Screen Press Vertical  873
1369999571.568283 Touch_Screen Release
1369999571.711668 Touch_Screen Press Horizontal 114
1369999571.711729 Touch_Screen Press Vertical  880
1369999571.755404 Touch_Screen Press Horizontal 113
1369999571.777683 Touch_Screen Press Horizontal 111
1369999571.777745 Touch_Screen Press Vertical  881
1369999571.788244 Touch_Screen Release
1369999571.887343 Touch_Screen Press Horizontal 44
1369999571.887374 Touch_Screen Press Vertical  970
1369999571.909257 Touch_Screen Press Vertical  974
1369999571.920305 Touch_Screen Press Vertical  977
1369999571.931109 Touch_Screen Press Vertical  979
1369999571.942158 Touch_Screen Press Vertical  982
1369999571.953237 Touch_Screen Press Horizontal 46
1369999571.953267 Touch_Screen Press Vertical  986
1369999571.964926 Touch_Screen Press Horizontal 51
1369999571.964956 Touch_Screen Press Vertical  993
1369999571.975608 Touch_Screen Release
1369999572.162515 Touch_Screen Press Horizontal 535
1369999572.162545 Touch_Screen Press Vertical  1062
1369999572.173563 Touch_Screen Press Horizontal 540
1369999572.173624 Touch_Screen Press Vertical  1064
1369999572.184551 Touch_Screen Press Horizontal 543
1369999572.184581 Touch_Screen Press Vertical  1066
1369999572.195385 Touch_Screen Press Horizontal 546
1369999572.195416 Touch_Screen Press Vertical  1067
1369999572.206342 Touch_Screen Press Horizontal 548
1369999572.206403 Touch_Screen Press Vertical  1068
1369999572.217299 Touch_Screen Press Horizontal 550
1369999572.217329 Touch_Screen Press Vertical  1070
1369999572.228378 Touch_Screen Press Horizontal 551
1369999572.228408 Touch_Screen Press Vertical  1071
1369999572.239487 Touch_Screen Press Horizontal 552
1369999572.239548 Touch_Screen Press Vertical  1072
1369999572.250444 Touch_Screen Press Horizontal 553
1369999572.250475 Touch_Screen Press Vertical  1073
1369999572.305411 Touch_Screen Press Horizontal 554
1369999572.305442 Touch_Screen Press Vertical  1072
1369999572.327905 Touch_Screen Press Vertical  1068
1369999572.338556 Touch_Screen Release
1369999572.503672 Touch_Screen Press Horizontal 514
1369999572.503702 Touch_Screen Press Vertical  879
1369999572.569565 Touch_Screen Press Horizontal 516
1369999572.581132 Touch_Screen Press Horizontal 517
1369999572.591448 Touch_Screen Release
1369999573.472114 Touch_Screen Press Horizontal 674
1369999573.472205 Touch_Screen Press Vertical  1119
1369999573.559890 Touch_Screen Release
1369999573.691799 Touch_Screen Press Horizontal 681
1369999573.691860 Touch_Screen Press Vertical  1116
1369999573.724700 Touch_Screen Press Horizontal 680
1369999573.736267 Touch_Screen Press Horizontal 678
1369999573.746980 Touch_Screen Release
1369999574.594714 Touch_Screen Press Horizontal 684
1369999574.594775 Touch_Screen Press Vertical  1102
1369999574.660729 Touch_Screen Press Vertical  1101
1369999574.671473 Touch_Screen Release
1369999574.792181 Touch_Screen Press Horizontal 687
1369999574.792211 Touch_Screen Press Vertical  1107
1369999574.824960 Touch_Screen Press Horizontal 688
1369999574.835764 Touch_Screen Press Horizontal 689
1369999574.858593 Touch_Screen Press Vertical  1108
1369999574.869214 Touch_Screen Release
1369999574.990197 Touch_Screen Press Horizontal 687
1369999574.990258 Touch_Screen Press Vertical  1114
1369999575.056640 Touch_Screen Release
1369999575.177073 Touch_Screen Press Vertical  1115
1369999575.243791 Touch_Screen Release
1369999575.375272 Touch_Screen Press Horizontal 689
1369999575.375303 Touch_Screen Press Vertical  1120
1369999575.386046 Touch_Screen Press Horizontal 690
1369999575.386077 Touch_Screen Press Vertical  1119
1369999575.408601 Touch_Screen Release
1369999576.036099 Touch_Screen Press Horizontal 171
1369999576.036130 Touch_Screen Press Vertical  998
1369999576.058074 Touch_Screen Press Horizontal 174
1369999576.058105 Touch_Screen Press Vertical  996
1369999576.069061 Touch_Screen Press Horizontal 179
1369999576.069092 Touch_Screen Press Vertical  994
1369999576.080079 Touch_Screen Press Horizontal 183
1369999576.080110 Touch_Screen Press Vertical  992
1369999576.091524 Touch_Screen Press Horizontal 187
1369999576.091586 Touch_Screen Press Vertical  990
1369999576.101932 Touch_Screen Release
1369999576.531323 Touch_Screen Press Horizontal 664
1369999576.531384 Touch_Screen Press Vertical  1118
1369999576.541975 Touch_Screen Press Horizontal 665
1369999576.542005 Touch_Screen Press Vertical  1119
1369999576.552901 Touch_Screen Press Horizontal 666
1369999576.564255 Touch_Screen Press Horizontal 667
1369999576.574998 Touch_Screen Press Horizontal 668
1369999576.596972 Touch_Screen Press Horizontal 669
1369999576.641563 Touch_Screen Press Horizontal 668
1369999576.641624 Touch_Screen Press Vertical  1118
1369999576.652275 Touch_Screen Release
1369999577.247209 Touch_Screen Press Horizontal 251
1369999577.247270 Touch_Screen Press Vertical  1013
1369999577.312950 Touch_Screen Press Horizontal 247
1369999577.312980 Touch_Screen Press Vertical  1012
1369999577.323723 Touch_Screen Press Horizontal 244
1369999577.323785 Touch_Screen Press Vertical  1010
1369999577.335535 Touch_Screen Press Horizontal 239
1369999577.335596 Touch_Screen Press Vertical  1007
1369999577.345393 Touch_Screen Release
1369999577.489144 Touch_Screen Press Horizontal 185
1369999577.489205 Touch_Screen Press Vertical  891
1369999577.532757 Touch_Screen Press Horizontal 184
1369999577.544142 Touch_Screen Release
1369999577.665124 Touch_Screen Press Horizontal 170
1369999577.665155 Touch_Screen Press Vertical  882
1369999577.719756 Touch_Screen Press Horizontal 168
1369999577.719817 Touch_Screen Press Vertical  883
1369999577.731384 Touch_Screen Press Horizontal 165
1369999577.741975 Touch_Screen Release
1369999577.984490 Touch_Screen Press Horizontal 85
1369999577.984520 Touch_Screen Press Vertical  892
1369999578.017207 Touch_Screen Press Horizontal 84
1369999578.017238 Touch_Screen Press Vertical  894
1369999578.028134 Touch_Screen Press Vertical  895
1369999578.039548 Touch_Screen Press Vertical  897
1369999578.049712 Touch_Screen Release
1369999578.182200 Touch_Screen Press Horizontal 41
1369999578.182231 Touch_Screen Press Vertical  987
1369999578.204297 Touch_Screen Press Vertical  989
1369999578.215101 Touch_Screen Press Horizontal 40
1369999578.215162 Touch_Screen Press Vertical  991
1369999578.226119 Touch_Screen Press Horizontal 39
1369999578.226180 Touch_Screen Press Vertical  994
1369999578.236985 Touch_Screen Press Horizontal 37
1369999578.237015 Touch_Screen Press Vertical  997
1369999578.247880 Touch_Screen Press Horizontal 35
1369999578.247911 Touch_Screen Press Vertical  1000
1369999578.259478 Touch_Screen Press Vertical  1004
1369999578.270221 Touch_Screen Release
1369999579.029629 Touch_Screen Press Horizontal 524
1369999579.029690 Touch_Screen Press Vertical  1121
1369999579.117375 Touch_Screen Release
1369999579.348659 Touch_Screen Press Horizontal 505
1369999579.348689 Touch_Screen Press Vertical  889
1369999579.370908 Touch_Screen Press Horizontal 508
1369999579.370938 Touch_Screen Press Vertical  888
1369999579.381804 Touch_Screen Press Horizontal 509
1369999579.381865 Touch_Screen Press Vertical  887
1369999579.392608 Touch_Screen Press Horizontal 511
1369999579.403656 Touch_Screen Press Horizontal 514
1369999579.403687 Touch_Screen Press Vertical  886
1369999579.414674 Touch_Screen Press Horizontal 517
1369999579.414705 Touch_Screen Press Vertical  885
1369999579.425448 Touch_Screen Press Horizontal 519
1369999579.425478 Touch_Screen Press Vertical  884
1369999579.436801 Touch_Screen Release
1369999580.306479 Touch_Screen Press Horizontal 659
1369999580.306540 Touch_Screen Press Vertical  683
1369999580.338984 Touch_Screen Press Horizontal 661
1369999580.339014 Touch_Screen Press Vertical  684
1369999580.349971 Touch_Screen Press Horizontal 662
1369999580.361569 Touch_Screen Press Vertical  685
1369999580.372373 Touch_Screen Press Horizontal 663
1369999580.372403 Touch_Screen Press Vertical  686
1369999580.383116 Touch_Screen Release
1369999581.649376 Touch_Screen Press Horizontal 538
1369999581.649437 Touch_Screen Press Vertical  901
1369999581.660211 Touch_Screen Press Horizontal 535
1369999581.671473 Touch_Screen Press Horizontal 531
1369999581.682368 Touch_Screen Press Horizontal 526
1369999581.693508 Touch_Screen Press Horizontal 518
1369999581.704679 Touch_Screen Press Horizontal 509
1369999581.715605 Touch_Screen Press Horizontal 495
1369999581.715666 Touch_Screen Press Vertical  899
1369999581.726531 Touch_Screen Press Horizontal 479
1369999581.726562 Touch_Screen Press Vertical  897
1369999581.737580 Touch_Screen Press Horizontal 461
1369999581.737610 Touch_Screen Press Vertical  894
1369999581.748323 Touch_Screen Press Horizontal 441
1369999581.748353 Touch_Screen Press Vertical  891
1369999581.759524 Touch_Screen Press Horizontal 421
1369999581.759585 Touch_Screen Press Vertical  888
1369999581.770694 Touch_Screen Press Horizontal 400
1369999581.770725 Touch_Screen Press Vertical  884
1369999581.781560 Touch_Screen Press Horizontal 383
1369999581.781590 Touch_Screen Press Vertical  880
1369999581.792547 Touch_Screen Press Horizontal 369
1369999581.792577 Touch_Screen Press Vertical  878
1369999581.803748 Touch_Screen Press Horizontal 356
1369999581.803809 Touch_Screen Press Vertical  876
1369999581.814857 Touch_Screen Press Horizontal 346
1369999581.814888 Touch_Screen Press Vertical  874
1369999581.825845 Touch_Screen Press Horizontal 339
1369999581.825906 Touch_Screen Press Vertical  873
1369999581.836771 Touch_Screen Press Horizontal 335
1369999581.836801 Touch_Screen Press Vertical  872
1369999581.848094 Touch_Screen Press Horizontal 333
1369999581.848124 Touch_Screen Press Vertical  871
1369999581.858837 Touch_Screen Press Horizontal 332
1369999581.869855 Touch_Screen Press Horizontal 331
1369999581.880842 Touch_Screen Press Horizontal 330
1369999581.891921 Touch_Screen Press Horizontal 329
1369999581.902909 Touch_Screen Press Horizontal 328
1369999581.913957 Touch_Screen Press Horizontal 327
1369999581.947011 Touch_Screen Press Horizontal 326
1369999581.947041 Touch_Screen Press Vertical  872
1369999581.957815 Touch_Screen Press Horizontal 324
1369999581.957845 Touch_Screen Press Vertical  873
1369999581.968924 Touch_Screen Press Horizontal 321
1369999581.968985 Touch_Screen Press Vertical  874
1369999581.979911 Touch_Screen Press Horizontal 315
1369999581.979942 Touch_Screen Press Vertical  882
1369999581.990777 Touch_Screen Press Horizontal 308
1369999581.990838 Touch_Screen Press Vertical  887
1369999582.002039 Touch_Screen Press Horizontal 298
1369999582.002069 Touch_Screen Press Vertical  895
1369999582.013087 Touch_Screen Press Horizontal 286
1369999582.013118 Touch_Screen Press Vertical  905
1369999582.023800 Touch_Screen Press Horizontal 274
1369999582.023830 Touch_Screen Press Vertical  914
1369999582.034909 Touch_Screen Press Horizontal 260
1369999582.034970 Touch_Screen Press Vertical  924
1369999582.046141 Touch_Screen Press Horizontal 246
1369999582.046171 Touch_Screen Press Vertical  933
1369999582.056975 Touch_Screen Press Horizontal 230
1369999582.057036 Touch_Screen Press Vertical  942
1369999582.067993 Touch_Screen Press Horizontal 217
1369999582.068024 Touch_Screen Press Vertical  950
1369999582.079164 Touch_Screen Press Horizontal 204
1369999582.079194 Touch_Screen Press Vertical  957
1369999582.090059 Touch_Screen Press Horizontal 191
1369999582.090090 Touch_Screen Press Vertical  963
1369999582.101077 Touch_Screen Press Horizontal 181
1369999582.101108 Touch_Screen Press Vertical  967
1369999582.111790 Touch_Screen Press Horizontal 172
1369999582.111821 Touch_Screen Press Vertical  971
1369999582.123021 Touch_Screen Press Horizontal 164
1369999582.123083 Touch_Screen Press Vertical  975
1369999582.133795 Touch_Screen Press Horizontal 157
1369999582.133826 Touch_Screen Press Vertical  979
1369999582.145210 Touch_Screen Press Horizontal 150
1369999582.145271 Touch_Screen Press Vertical  982
1369999582.155922 Touch_Screen Press Horizontal 144
1369999582.155983 Touch_Screen Press Vertical  985
1369999582.166910 Touch_Screen Press Horizontal 137
1369999582.166940 Touch_Screen Press Vertical  988
1369999582.177989 Touch_Screen Press Horizontal 132
1369999582.178019 Touch_Screen Press Vertical  990
1369999582.188976 Touch_Screen Press Horizontal 128
1369999582.189007 Touch_Screen Press Vertical  993
1369999582.199902 Touch_Screen Press Horizontal 125
1369999582.199963 Touch_Screen Press Vertical  996
1369999582.210798 Touch_Screen Press Horizontal 124
1369999582.210829 Touch_Screen Press Vertical  999
1369999582.223861 Touch_Screen Press Horizontal 125
1369999582.223891 Touch_Screen Press Vertical  1000
1369999582.233505 Touch_Screen Press Vertical  1002
1369999582.243699 Touch_Screen Release
1369999582.882124 Touch_Screen Press Horizontal 437
1369999582.882185 Touch_Screen Press Vertical  1245
1369999582.903916 Touch_Screen Press Vertical  1244
1369999582.927050 Touch_Screen Press Horizontal 438
1369999582.927081 Touch_Screen Press Vertical  1240
1369999582.937305 Touch_Screen Release
1369999583.201947 Touch_Screen Press Horizontal 361
1369999583.201978 Touch_Screen Press Vertical  1098
1369999583.278889 Touch_Screen Press Horizontal 360
1369999583.278920 Touch_Screen Press Vertical  1096
1369999583.289785 Touch_Screen Press Horizontal 358
1369999583.289815 Touch_Screen Press Vertical  1094
1369999583.300711 Touch_Screen Press Horizontal 353
1369999583.300772 Touch_Screen Press Vertical  1090
1369999583.311790 Touch_Screen Press Horizontal 345
1369999583.311821 Touch_Screen Press Vertical  1085
1369999583.322838 Touch_Screen Press Horizontal 335
1369999583.322899 Touch_Screen Press Vertical  1077
1369999583.333948 Touch_Screen Press Horizontal 321
1369999583.333978 Touch_Screen Press Vertical  1065
1369999583.344813 Touch_Screen Press Horizontal 308
1369999583.344844 Touch_Screen Press Vertical  1052
1369999583.355892 Touch_Screen Press Horizontal 292
1369999583.355922 Touch_Screen Press Vertical  1040
1369999583.366971 Touch_Screen Press Horizontal 278
1369999583.367001 Touch_Screen Press Vertical  1028
1369999583.377897 Touch_Screen Press Horizontal 265
1369999583.377928 Touch_Screen Press Vertical  1014
1369999583.389068 Touch_Screen Press Horizontal 255
1369999583.389129 Touch_Screen Press Vertical  1002
1369999583.400177 Touch_Screen Press Horizontal 245
1369999583.400208 Touch_Screen Press Vertical  990
1369999583.411286 Touch_Screen Press Horizontal 237
1369999583.411317 Touch_Screen Press Vertical  978
1369999583.422304 Touch_Screen Press Horizontal 230
1369999583.422335 Touch_Screen Press Vertical  969
1369999583.433047 Touch_Screen Press Horizontal 224
1369999583.433078 Touch_Screen Press Vertical  962
1369999583.444096 Touch_Screen Press Horizontal 220
1369999583.444126 Touch_Screen Press Vertical  956
1369999583.454900 Touch_Screen Press Horizontal 216
1369999583.454931 Touch_Screen Press Vertical  951
1369999583.466009 Touch_Screen Press Horizontal 213
1369999583.466040 Touch_Screen Press Vertical  948
1369999583.477210 Touch_Screen Press Horizontal 210
1369999583.477241 Touch_Screen Press Vertical  943
1369999583.488076 Touch_Screen Press Horizontal 208
1369999583.488106 Touch_Screen Press Vertical  938
1369999583.499185 Touch_Screen Press Horizontal 206
1369999583.499216 Touch_Screen Press Vertical  934
1369999583.510172 Touch_Screen Press Horizontal 204
1369999583.510203 Touch_Screen Press Vertical  932
1369999583.521373 Touch_Screen Press Horizontal 202
1369999583.521404 Touch_Screen Press Vertical  931
1369999583.532361 Touch_Screen Press Horizontal 200
1369999583.532422 Touch_Screen Press Vertical  930
1369999583.543409 Touch_Screen Press Horizontal 199
1369999583.543440 Touch_Screen Press Vertical  929
1369999583.554213 Touch_Screen Press Vertical  928
1369999583.565201 Touch_Screen Press Vertical  927
1369999583.576219 Touch_Screen Press Vertical  926
1369999583.587267 Touch_Screen Press Horizontal 200
1369999583.587297 Touch_Screen Press Vertical  925
1369999583.598193 Touch_Screen Press Horizontal 202
1369999583.598224 Touch_Screen Press Vertical  923
1369999583.609303 Touch_Screen Press Horizontal 205
1369999583.609333 Touch_Screen Press Vertical  921
1369999583.620443 Touch_Screen Press Horizontal 209
1369999583.620473 Touch_Screen Press Vertical  919
1369999583.631613 Touch_Screen Press Horizontal 214
1369999583.631674 Touch_Screen Press Vertical  916
1369999583.642600 Touch_Screen Press Horizontal 221
1369999583.642631 Touch_Screen Press Vertical  911
1369999583.653618 Touch_Screen Press Horizontal 227
1369999583.653649 Touch_Screen Press Vertical  907
1369999583.664544 Touch_Screen Press Horizontal 233
1369999583.664575 Touch_Screen Press Vertical  904
1369999583.675349 Touch_Screen Press Horizontal 238
1369999583.675410 Touch_Screen Press Vertical  901
1369999583.686275 Touch_Screen Press Horizontal 242
1369999583.686305 Touch_Screen Press Vertical  899
1369999583.697354 Touch_Screen Press Horizontal 245
1369999583.697384 Touch_Screen Press Vertical  898
1369999583.708402 Touch_Screen Press Horizontal 247
1369999583.708433 Touch_Screen Press Vertical  897
1369999583.719542 Touch_Screen Press Horizontal 249
1369999583.730377 Touch_Screen Press Horizontal 251
1369999583.741425 Touch_Screen Press Horizontal 253
1369999583.752565 Touch_Screen Press Horizontal 255
1369999583.763430 Touch_Screen Press Horizontal 258
1369999583.763461 Touch_Screen Press Vertical  898
1369999583.774540 Touch_Screen Press Horizontal 261
1369999583.774570 Touch_Screen Press Vertical  900
1369999583.785649 Touch_Screen Press Horizontal 267
1369999583.785680 Touch_Screen Press Vertical  902
1369999583.796667 Touch_Screen Press Horizontal 273
1369999583.796698 Touch_Screen Press Vertical  904
1369999583.807746 Touch_Screen Press Horizontal 278
1369999583.807777 Touch_Screen Press Vertical  905
1369999583.818337 Touch_Screen Press Horizontal 284
1369999583.818398 Touch_Screen Press Vertical  906
1369999583.829416 Touch_Screen Press Horizontal 291
1369999583.829446 Touch_Screen Press Vertical  907
1369999583.840525 Touch_Screen Press Horizontal 296
1369999583.851451 Touch_Screen Press Horizontal 303
1369999583.851482 Touch_Screen Press Vertical  906
1369999583.862652 Touch_Screen Press Horizontal 313
1369999583.862683 Touch_Screen Press Vertical  905
1369999583.873640 Touch_Screen Press Horizontal 321
1369999583.873670 Touch_Screen Press Vertical  903
1369999583.884688 Touch_Screen Press Horizontal 328
1369999583.884718 Touch_Screen Press Vertical  901
1369999583.895370 Touch_Screen Press Horizontal 337
1369999583.895401 Touch_Screen Press Vertical  897
1369999583.906449 Touch_Screen Press Horizontal 343
1369999583.906479 Touch_Screen Press Vertical  895
1369999583.917406 Touch_Screen Press Horizontal 347
1369999583.917436 Touch_Screen Press Vertical  893
1369999583.928393 Touch_Screen Press Horizontal 351
1369999583.928424 Touch_Screen Press Vertical  891
1369999583.939350 Touch_Screen Press Horizontal 355
1369999583.939380 Touch_Screen Press Vertical  890
1369999583.950429 Touch_Screen Press Horizontal 360
1369999583.950459 Touch_Screen Press Vertical  889
1369999583.961599 Touch_Screen Press Horizontal 366
1369999583.961630 Touch_Screen Press Vertical  888
1369999583.972709 Touch_Screen Press Horizontal 372
1369999583.983391 Touch_Screen Press Horizontal 377
1369999583.983421 Touch_Screen Press Vertical  889
1369999583.994714 Touch_Screen Release
1369999585.415071 Touch_Screen Press Horizontal 667
1369999585.415132 Touch_Screen Press Vertical  1095
1369999585.458837 Touch_Screen Press Vertical  1096
1369999585.469519 Touch_Screen Release
1369999585.623586 Touch_Screen Press Horizontal 681
1369999585.623647 Touch_Screen Press Vertical  1100
1369999585.669763 Touch_Screen Release
1369999585.777561 Touch_Screen Press Horizontal 677
1369999585.777592 Touch_Screen Press Vertical  1107
1369999585.832315 Touch_Screen Press Horizontal 678
1369999585.854686 Touch_Screen Press Horizontal 679
1369999585.865857 Touch_Screen Release
1369999586.493081 Touch_Screen Press Horizontal 695
1369999586.493112 Touch_Screen Press Vertical  1089
1369999586.581621 Touch_Screen Press Horizontal 694
1369999586.592333 Touch_Screen Release
1369999586.912278 Touch_Screen Press Horizontal 367
1369999586.912339 Touch_Screen Press Vertical  1093
1369999586.978050 Touch_Screen Press Vertical  1091
1369999586.988610 Touch_Screen Release
1369999587.242692 Touch_Screen Press Horizontal 228
1369999587.242722 Touch_Screen Press Vertical  882
1369999587.331018 Touch_Screen Press Vertical  881
1369999587.341151 Touch_Screen Release
1369999587.429416 Touch_Screen Press Horizontal 245
1369999587.429446 Touch_Screen Press Vertical  884
1369999587.462103 Touch_Screen Press Horizontal 246
1369999587.473121 Touch_Screen Press Horizontal 248
1369999587.473151 Touch_Screen Press Vertical  885
1369999587.484779 Touch_Screen Press Horizontal 250
1369999587.484810 Touch_Screen Press Vertical  886
1369999587.495004 Touch_Screen Release
1369999587.660211 Touch_Screen Press Horizontal 402
1369999587.660272 Touch_Screen Press Vertical  892
1369999587.682246 Touch_Screen Press Horizontal 403
1369999587.693356 Touch_Screen Press Horizontal 407
1369999587.693386 Touch_Screen Press Vertical  893
1369999587.705228 Touch_Screen Press Horizontal 414
1369999587.705259 Touch_Screen Press Vertical  895
1369999587.715910 Touch_Screen Release
1369999588.254900 Touch_Screen Press Horizontal 449
1369999588.254961 Touch_Screen Press Vertical  1217
1369999588.331689 Touch_Screen Press Horizontal 451
1369999588.331720 Touch_Screen Press Vertical  1213
1369999588.343165 Touch_Screen Press Horizontal 453
1369999588.343195 Touch_Screen Press Vertical  1206
1369999588.353725 Touch_Screen Release
1369999588.717497 Touch_Screen Press Horizontal 376
1369999588.717558 Touch_Screen Press Vertical  1006
1369999588.728546 Touch_Screen Press Horizontal 378
1369999588.728576 Touch_Screen Press Vertical  1005
1369999588.739045 Touch_Screen Press Horizontal 386
1369999588.739075 Touch_Screen Press Vertical  1001
1369999588.750154 Touch_Screen Press Horizontal 395
1369999588.750185 Touch_Screen Press Vertical  997
1369999588.761233 Touch_Screen Press Horizontal 406
1369999588.761264 Touch_Screen Press Vertical  991
1369999588.772495 Touch_Screen Press Horizontal 418
1369999588.772526 Touch_Screen Press Vertical  984
1369999588.783208 Touch_Screen Press Horizontal 435
1369999588.783238 Touch_Screen Press Vertical  973
1369999588.794226 Touch_Screen Press Horizontal 451
1369999588.794256 Touch_Screen Press Vertical  964
1369999588.805396 Touch_Screen Press Horizontal 471
1369999588.805426 Touch_Screen Press Vertical  952
1369999588.816200 Touch_Screen Press Horizontal 491
1369999588.816231 Touch_Screen Press Vertical  942
1369999588.827340 Touch_Screen Press Horizontal 509
1369999588.827371 Touch_Screen Press Vertical  934
1369999588.838388 Touch_Screen Press Horizontal 527
1369999588.838419 Touch_Screen Press Vertical  924
1369999588.849132 Touch_Screen Press Horizontal 542
1369999588.849162 Touch_Screen Press Vertical  917
1369999588.860363 Touch_Screen Press Horizontal 556
1369999588.860424 Touch_Screen Press Vertical  910
1369999588.871351 Touch_Screen Press Horizontal 567
1369999588.871412 Touch_Screen Press Vertical  905
1369999588.882216 Touch_Screen Press Horizontal 575
1369999588.882246 Touch_Screen Press Vertical  901
1369999588.893356 Touch_Screen Press Horizontal 581
1369999588.893417 Touch_Screen Press Vertical  898
1369999588.904313 Touch_Screen Press Horizontal 586
1369999588.904343 Touch_Screen Press Vertical  896
1369999588.915330 Touch_Screen Press Horizontal 590
1369999588.915361 Touch_Screen Press Vertical  894
1369999588.926287 Touch_Screen Press Horizontal 593
1369999588.926318 Touch_Screen Press Vertical  892
1369999588.937275 Touch_Screen Press Horizontal 595
1369999588.937305 Touch_Screen Press Vertical  891
1369999588.948231 Touch_Screen Press Horizontal 596
1369999588.948262 Touch_Screen Press Vertical  890
1369999588.959432 Touch_Screen Press Horizontal 597
1369999588.970481 Touch_Screen Press Horizontal 598
1369999589.014338 Touch_Screen Press Horizontal 599
1369999589.025387 Touch_Screen Press Horizontal 600
1369999589.036344 Touch_Screen Press Horizontal 601
1369999589.036374 Touch_Screen Press Vertical  891
1369999589.047331 Touch_Screen Press Horizontal 602
1369999589.058349 Touch_Screen Press Vertical  892
1369999589.069458 Touch_Screen Press Horizontal 603
1369999589.080323 Touch_Screen Press Horizontal 604
1369999589.080354 Touch_Screen Press Vertical  893
1369999589.091341 Touch_Screen Press Horizontal 605
1369999589.102329 Touch_Screen Press Horizontal 606
1369999589.124395 Touch_Screen Press Vertical  894
1369999589.135413 Touch_Screen Press Horizontal 607
1369999589.146675 Touch_Screen Press Vertical  895
1369999589.157723 Touch_Screen Press Vertical  896
1369999589.179850 Touch_Screen Press Horizontal 606
1369999589.179881 Touch_Screen Press Vertical  897
1369999589.190868 Touch_Screen Press Horizontal 602
1369999589.190899 Touch_Screen Press Vertical  898
1369999589.201795 Touch_Screen Press Horizontal 597
1369999589.201825 Touch_Screen Press Vertical  900
1369999589.212629 Touch_Screen Press Horizontal 585
1369999589.212660 Touch_Screen Press Vertical  905
1369999589.223647 Touch_Screen Press Horizontal 570
1369999589.223678 Touch_Screen Press Vertical  908
1369999589.234696 Touch_Screen Press Horizontal 547
1369999589.234726 Touch_Screen Press Vertical  913
1369999589.245744 Touch_Screen Press Horizontal 520
1369999589.245774 Touch_Screen Press Vertical  920
1369999589.256884 Touch_Screen Press Horizontal 494
1369999589.256914 Touch_Screen Press Vertical  924
1369999589.267810 Touch_Screen Press Horizontal 462
1369999589.267841 Touch_Screen Press Vertical  930
1369999589.278614 Touch_Screen Press Horizontal 432
1369999589.278950 Touch_Screen Press Vertical  935
1369999589.290182 Touch_Screen Press Horizontal 404
1369999589.290212 Touch_Screen Press Vertical  942
1369999589.300833 Touch_Screen Press Horizontal 380
1369999589.300864 Touch_Screen Press Vertical  948
1369999589.312126 Touch_Screen Press Horizontal 357
1369999589.312156 Touch_Screen Press Vertical  955
1369999589.322808 Touch_Screen Press Horizontal 336
1369999589.322838 Touch_Screen Press Vertical  961
1369999589.333887 Touch_Screen Press Horizontal 318
1369999589.333917 Touch_Screen Press Vertical  966
1369999589.345057 Touch_Screen Press Horizontal 299
1369999589.345088 Touch_Screen Press Vertical  971
1369999589.356045 Touch_Screen Press Horizontal 285
1369999589.356075 Touch_Screen Press Vertical  975
1369999589.366757 Touch_Screen Press Horizontal 272
1369999589.366788 Touch_Screen Press Vertical  979
1369999589.378080 Touch_Screen Press Horizontal 259
1369999589.378111 Touch_Screen Press Vertical  983
1369999589.389098 Touch_Screen Press Horizontal 249
1369999589.389129 Touch_Screen Press Vertical  985
1369999589.400177 Touch_Screen Press Horizontal 241
1369999589.400208 Touch_Screen Press Vertical  987
1369999589.411256 Touch_Screen Press Horizontal 235
1369999589.411286 Touch_Screen Press Vertical  988
1369999589.422304 Touch_Screen Press Horizontal 231
1369999589.422335 Touch_Screen Press Vertical  989
1369999589.433017 Touch_Screen Press Horizontal 227
1369999589.433047 Touch_Screen Press Vertical  990
1369999589.443821 Touch_Screen Press Horizontal 224
1369999589.454747 Touch_Screen Press Horizontal 221
1369999589.454778 Touch_Screen Press Vertical  989
1369999589.465826 Touch_Screen Press Horizontal 220
1369999589.465857 Touch_Screen Press Vertical  988
1369999589.477516 Touch_Screen Press Horizontal 219
1369999589.487862 Touch_Screen Release
1369999589.994348 Touch_Screen Press Horizontal 687
1369999589.994409 Touch_Screen Press Vertical  717
1369999590.059997 Touch_Screen Press Vertical  718
1369999590.082094 Touch_Screen Release
******Finished******
