181.94,0.36555,0.53243,533.13,1.0191e+05,2058.4,1.0448e+05,0.00082404,0.99623,592.39,1.044e+05,53.963,1.0074e+05,0,0,0.48148,NaN,NaN,95668
133.23,0.018669,0,179.69,7188.5,475.69,7438.9,0,0.55625,211.69,7370.6,0,6641.7,0,0,1,NaN,NaN,12338
143,0.75614,15.785,1624,36139,2452,37307,0,0.63186,1752,37163,0,33708,0,0,0,NaN,NaN,0
119.5,0.15247,1.3541,1152.2,15845,1627,16353,3.68e-06,0.22835,1211,16268,107.84,14840,0,0,1.5,NaN,NaN,13731
51.722,0.56435,4.6073,1059.1,11414,1551.1,11892,0.072705,0.14051,1161.2,11782,204.81,10266,0,0,0.65278,NaN,NaN,5789.2
294.18,0.50962,0.81315,1580.5,2.3847e+05,4188.6,2.445e+05,0.021112,0.47552,1751.7,2.4438e+05,309.66,2.3583e+05,0,0,2.5717,NaN,NaN,2.3198e+05
111.25,0.37543,3.0359,780.75,6385.8,1076.8,6641.8,0,0.065123,820.75,6561.8,0,5812.8,0,0,1.25,NaN,NaN,10724
